…
``` r
# Load some example data built into R
dat <- iris

# Convert the data to a pretty format typical for dplyr: a tibble
dat <- as_tibble(dat)

# Show the data
dat
```

    ## # A tibble: 150 × 5
    ##    Sepal.Length Sepal.Width Petal.Length Petal.Width Species
    ##           <dbl>       <dbl>        <dbl>       <dbl> <fct>  
    ##  1          5.1         3.5          1.4         0.2 setosa 
    ##  2          4.9         3            1.4         0.2 setosa 
    ##  3          4.7         3.2          1.3         0.2 setosa 
    ##  4          4.6         3.1          1.5         0.2 setosa 
    ##  5          5           3.6          1.4         0.2 setosa 
    ##  6          5.4         3.9          1.7         0.4 setosa 
    ##  7          4.6         3.4          1.4         0.3 setosa 
    ##  8          5           3.4          1.5         0.2 setosa 
    ##  9          4.4         2.9          1.4         0.2 setosa 
    ## 10          4.9         3.1          1.5         0.1 setosa 
    ## # ℹ 140 more rows
…
``` r
# Example: Select the columns Sepal.Length, Sepal.Width, and Petal.Length
dplyr::select(dat, Sepal.Length, Sepal.Width, Petal.Length)
```

    ## # A tibble: 150 × 3
    ##    Sepal.Length Sepal.Width Petal.Length
    ##           <dbl>       <dbl>        <dbl>
    ##  1          5.1         3.5          1.4
    ##  2          4.9         3            1.4
    ##  3          4.7         3.2          1.3
    ##  4          4.6         3.1          1.5
    ##  5          5           3.6          1.4
    ##  6          5.4         3.9          1.7
    ##  7          4.6         3.4          1.4
    ##  8          5           3.4          1.5
    ##  9          4.4         2.9          1.4
    ## 10          4.9         3.1          1.5
    ## # ℹ 140 more rows

``` r
# Example: Remove the column Species
dplyr::select(dat, -Species)
```

    ## # A tibble: 150 × 4
    ##    Sepal.Length Sepal.Width Petal.Length Petal.Width
    ##           <dbl>       <dbl>        <dbl>       <dbl>
    ##  1          5.1         3.5          1.4         0.2
    ##  2          4.9         3            1.4         0.2
    ##  3          4.7         3.2          1.3         0.2
    ##  4          4.6         3.1          1.5         0.2
    ##  5          5           3.6          1.4         0.2
    ##  6          5.4         3.9          1.7         0.4
    ##  7          4.6         3.4          1.4         0.3
    ##  8          5           3.4          1.5         0.2
    ##  9          4.4         2.9          1.4         0.2
    ## 10          4.9         3.1          1.5         0.1
    ## # ℹ 140 more rows

``` r
# Task: Select the column Petal.Width
# dplyr::select(dat, <IHR CODE HIER>)

# Task: Remove the column Sepal.Length
# dplyr::select(dat, <IHR CODE HIER>)

# Example: Select all columns that start with "Sepal" and Species
dplyr::select(dat, starts_with("Sepal"), Species)
```

    ## # A tibble: 150 × 3
    ##    Sepal.Length Sepal.Width Species
    ##           <dbl>       <dbl> <fct>  
    ##  1          5.1         3.5 setosa 
    ##  2          4.9         3   setosa 
    ##  3          4.7         3.2 setosa 
    ##  4          4.6         3.1 setosa 
    ##  5          5           3.6 setosa 
    ##  6          5.4         3.9 setosa 
    ##  7          4.6         3.4 setosa 
    ##  8          5           3.4 setosa 
    ##  9          4.4         2.9 setosa 
    ## 10          4.9         3.1 setosa 
    ## # ℹ 140 more rows
…
### filter()

Weiter geht es mit der Grundfunktion filter. Während select Spalten
auswählt, kann filter verwendet werden, um Zeilen des Datensatzes
auszuwählen. Lesen Sie wieder die Dokumentation der Funktion
(?dplyr::filter) und lösen Sie die folgenden Aufgaben. Achten Sie
darauf, wie sich die Anzahl der Zeilen im Datensatz verändert.

``` r
# Example: Filter all rows with Sepal.Length > 3
dplyr::filter(dat, Sepal.Length > 3)
```

    ## # A tibble: 150 × 5
    ##    Sepal.Length Sepal.Width Petal.Length Petal.Width Species
    ##           <dbl>       <dbl>        <dbl>       <dbl> <fct>  
    ##  1          5.1         3.5          1.4         0.2 setosa 
    ##  2          4.9         3            1.4         0.2 setosa 
    ##  3          4.7         3.2          1.3         0.2 setosa 
    ##  4          4.6         3.1          1.5         0.2 setosa 
    ##  5          5           3.6          1.4         0.2 setosa 
    ##  6          5.4         3.9          1.7         0.4 setosa 
    ##  7          4.6         3.4          1.4         0.3 setosa 
    ##  8          5           3.4          1.5         0.2 setosa 
    ##  9          4.4         2.9          1.4         0.2 setosa 
    ## 10          4.9         3.1          1.5         0.1 setosa 
    ## # ℹ 140 more rows

``` r
# Example: Filter all rows with Sepal.Length > 3 AND Petal.Length < 1.5
dplyr::filter(dat, Sepal.Length > 3, Petal.Length < 1.5)
```

    ## # A tibble: 24 × 5
    ##    Sepal.Length Sepal.Width Petal.Length Petal.Width Species
    ##           <dbl>       <dbl>        <dbl>       <dbl> <fct>  
    ##  1          5.1         3.5          1.4         0.2 setosa 
    ##  2          4.9         3            1.4         0.2 setosa 
    ##  3          4.7         3.2          1.3         0.2 setosa 
    ##  4          5           3.6          1.4         0.2 setosa 
    ##  5          4.6         3.4          1.4         0.3 setosa 
    ##  6          4.4         2.9          1.4         0.2 setosa 
    ##  7          4.8         3            1.4         0.1 setosa 
    ##  8          4.3         3            1.1         0.1 setosa 
    ##  9          5.8         4            1.2         0.2 setosa 
    ## 10          5.4         3.9          1.3         0.4 setosa 
    ## # ℹ 14 more rows
…
### mutate()

Die Funktion mutate() wird verwendet, um neue Variablen zu erstellen
oder bestehende Variablen in einem Datensatz zu verändern. Schauen Sie
sich wie zuvor in die Dokumentation (?dplyr::mutate). Lösen Sie dann die
Übungsaufgaben.

``` r
# Example: Create a new column sepal_ratio
dplyr::mutate(dat, sepal_ratio = Sepal.Length / Sepal.Width)
```

    ## # A tibble: 150 × 6
    ##    Sepal.Length Sepal.Width Petal.Length Petal.Width Species sepal_ratio
    ##           <dbl>       <dbl>        <dbl>       <dbl> <fct>         <dbl>
    ##  1          5.1         3.5          1.4         0.2 setosa         1.46
    ##  2          4.9         3            1.4         0.2 setosa         1.63
    ##  3          4.7         3.2          1.3         0.2 setosa         1.47
    ##  4          4.6         3.1          1.5         0.2 setosa         1.48
    ##  5          5           3.6          1.4         0.2 setosa         1.39
    ##  6          5.4         3.9          1.7         0.4 setosa         1.38
    ##  7          4.6         3.4          1.4         0.3 setosa         1.35
    ##  8          5           3.4          1.5         0.2 setosa         1.47
    ##  9          4.4         2.9          1.4         0.2 setosa         1.52
    ## 10          4.9         3.1          1.5         0.1 setosa         1.58
    ## # ℹ 140 more rows

``` r
# Task: Create a new column called petal_length_squared that contains the square of Petal.Length
# dplyr::mutate(dat, <IHR CODE HIER>)

# Example: Transform the column Sepal.Length by multiplying every value by 10
dplyr::mutate(dat, Sepal.Length = Sepal.Length * 10)
```

    ## # A tibble: 150 × 5
    ##    Sepal.Length Sepal.Width Petal.Length Petal.Width Species
    ##           <dbl>       <dbl>        <dbl>       <dbl> <fct>  
    ##  1           51         3.5          1.4         0.2 setosa 
    ##  2           49         3            1.4         0.2 setosa 
    ##  3           47         3.2          1.3         0.2 setosa 
    ##  4           46         3.1          1.5         0.2 setosa 
    ##  5           50         3.6          1.4         0.2 setosa 
    ##  6           54         3.9          1.7         0.4 setosa 
    ##  7           46         3.4          1.4         0.3 setosa 
    ##  8           50         3.4          1.5         0.2 setosa 
    ##  9           44         2.9          1.4         0.2 setosa 
    ## 10           49         3.1          1.5         0.1 setosa 
    ## # ℹ 140 more rows
…
# Sometimes, you want to get means for groups of obvervations. group_by helps 
# you with that!

# Example: Group data by Species
# Note: In this case, we actually overwrite the object because the grouping
# structure must prevail to perform group-wise summarising operations.
dat <- dplyr::group_by(dat, Species)

# Task: After performing the grouping above, what is different when you print
# the tibble?
dat
```

    ## # A tibble: 150 × 5
    ## # Groups:   Species [3]
    ##    Sepal.Length Sepal.Width Petal.Length Petal.Width Species
    ##           <dbl>       <dbl>        <dbl>       <dbl> <fct>  
    ##  1          5.1         3.5          1.4         0.2 setosa 
    ##  2          4.9         3            1.4         0.2 setosa 
    ##  3          4.7         3.2          1.3         0.2 setosa 
    ##  4          4.6         3.1          1.5         0.2 setosa 
    ##  5          5           3.6          1.4         0.2 setosa 
    ##  6          5.4         3.9          1.7         0.4 setosa 
    ##  7          4.6         3.4          1.4         0.3 setosa 
    ##  8          5           3.4          1.5         0.2 setosa 
    ##  9          4.4         2.9          1.4         0.2 setosa 
    ## 10          4.9         3.1          1.5         0.1 setosa 
    ## # ℹ 140 more rows
…
``` r
# Show number of columns
ncol(dat)
```

    ## [1] 14

Um einzelne Spalten auszuwählen, können Sie dplyr::select verwenden.

``` r
# Select columns height and mass
dplyr::select(dat, height, mass)
```

    ## # A tibble: 87 × 2
    ##    height  mass
    ##     <int> <dbl>
    ##  1    172    77
    ##  2    167    75
    ##  3     96    32
    ##  4    202   136
    ##  5    150    49
    ##  6    178   120
    ##  7    165    75
    ##  8     97    32
    ##  9    183    84
    ## 10    182    77
    ## # ℹ 77 more rows

``` r
# Remove columns height and mass
dplyr::select(dat, -height, -mass)
```

    ## # A tibble: 87 × 12
    ##    name        hair_color skin_color eye_color birth_year sex   gender homeworld
    ##    <chr>       <chr>      <chr>      <chr>          <dbl> <chr> <chr>  <chr>    
    ##  1 Luke Skywa… blond      fair       blue            19   male  mascu… Tatooine 
    ##  2 C-3PO       <NA>       gold       yellow         112   none  mascu… Tatooine 
    ##  3 R2-D2       <NA>       white, bl… red             33   none  mascu… Naboo    
    ##  4 Darth Vader none       white      yellow          41.9 male  mascu… Tatooine 
    ##  5 Leia Organa brown      light      brown           19   fema… femin… Alderaan 
    ##  6 Owen Lars   brown, gr… light      blue            52   male  mascu… Tatooine 
    ##  7 Beru White… brown      light      blue            47   fema… femin… Tatooine 
    ##  8 R5-D4       <NA>       white, red red             NA   none  mascu… Tatooine 
    ##  9 Biggs Dark… black      light      brown           24   male  mascu… Tatooine 
    ## 10 Obi-Wan Ke… auburn, w… fair       blue-gray       57   male  mascu… Stewjon  
    ## # ℹ 77 more rows
    ## # ℹ 4 more variables: species <chr>, films <list>, vehicles <list>,
    ## #   starships <list>
…
### 2. Spalten umbenennen

Benennen Sie im nächsten Schritt Spalten nach einem einheitlichen
Namensschema um (z.B. alles klein, Unterstriche, alles Singular). Die
Spalten des Beispieldatensatzes sind schon nach diesem Schema benannt.
Sie können zu diesem Zweck die Funktion “dplyr::rename” verwenden. Hier
ein paar Beispiele:

``` r
# Rename column "name" to "name_new", but don't overwrite dat
dplyr::rename(dat, name_new = name)
```

    ## # A tibble: 87 × 13
    ##    name_new height  mass hair_color skin_color eye_color birth_year sex   gender
    ##    <chr>     <int> <dbl> <chr>      <chr>      <chr>          <dbl> <chr> <chr> 
    ##  1 Luke Sk…    172    77 blond      fair       blue            19   male  mascu…
    ##  2 C-3PO       167    75 <NA>       gold       yellow         112   none  mascu…
    ##  3 R2-D2        96    32 <NA>       white, bl… red             33   none  mascu…
    ##  4 Darth V…    202   136 none       white      yellow          41.9 male  mascu…
    ##  5 Leia Or…    150    49 brown      light      brown           19   fema… femin…
    ##  6 Owen La…    178   120 brown, gr… light      blue            52   male  mascu…
    ##  7 Beru Wh…    165    75 brown      light      blue            47   fema… femin…
    ##  8 R5-D4        97    32 <NA>       white, red red             NA   none  mascu…
    ##  9 Biggs D…    183    84 black      light      brown           24   male  mascu…
    ## 10 Obi-Wan…    182    77 auburn, w… fair       blue-gray       57   male  mascu…
    ## # ℹ 77 more rows
    ## # ℹ 4 more variables: homeworld <chr>, species <chr>, films <list>,
    ## #   vehicles <list>

``` r
# Rename multiple columns in one call
dplyr::rename(
  dat, 
  name_new = name,
  hugeness = height
  )
```

    ## # A tibble: 87 × 13
    ##    name_new      hugeness  mass hair_color skin_color eye_color birth_year sex  
    ##    <chr>            <int> <dbl> <chr>      <chr>      <chr>          <dbl> <chr>
    ##  1 Luke Skywalk…      172    77 blond      fair       blue            19   male 
    ##  2 C-3PO              167    75 <NA>       gold       yellow         112   none 
    ##  3 R2-D2               96    32 <NA>       white, bl… red             33   none 
    ##  4 Darth Vader        202   136 none       white      yellow          41.9 male 
    ##  5 Leia Organa        150    49 brown      light      brown           19   fema…
    ##  6 Owen Lars          178   120 brown, gr… light      blue            52   male 
    ##  7 Beru Whitesu…      165    75 brown      light      blue            47   fema…
    ##  8 R5-D4               97    32 <NA>       white, red red             NA   none 
    ##  9 Biggs Darkli…      183    84 black      light      brown           24   male 
    ## 10 Obi-Wan Keno…      182    77 auburn, w… fair       blue-gray       57   male 
    ## # ℹ 77 more rows
    ## # ℹ 5 more variables: gender <chr>, homeworld <chr>, species <chr>,
    ## #   films <list>, vehicles <list>
…
  # A function applied to the column names
  # ~: Shows that a function begins, just like f(x) in math or function (x) in R
  # .: The unknow in the function, like "the x" in math or the object x in a function in R
  # sub: sub is just a standard R function to replace a character
  .fn = ~sub("color", "colr", .),
  
  # A selecting function just like in dplyr::select()
  .cols = contains("color")
  
)
```

    ## # A tibble: 87 × 13
    ##    name        height  mass hair_colr skin_colr eye_colr birth_year sex   gender
    ##    <chr>        <int> <dbl> <chr>     <chr>     <chr>         <dbl> <chr> <chr> 
    ##  1 Luke Skywa…    172    77 blond     fair      blue           19   male  mascu…
    ##  2 C-3PO          167    75 <NA>      gold      yellow        112   none  mascu…
    ##  3 R2-D2           96    32 <NA>      white, b… red            33   none  mascu…
    ##  4 Darth Vader    202   136 none      white     yellow         41.9 male  mascu…
    ##  5 Leia Organa    150    49 brown     light     brown          19   fema… femin…
    ##  6 Owen Lars      178   120 brown, g… light     blue           52   male  mascu…
    ##  7 Beru White…    165    75 brown     light     blue           47   fema… femin…
    ##  8 R5-D4           97    32 <NA>      white, r… red            NA   none  mascu…
    ##  9 Biggs Dark…    183    84 black     light     brown          24   male  mascu…
    ## 10 Obi-Wan Ke…    182    77 auburn, … fair      blue-gr…       57   male  mascu…
    ## # ℹ 77 more rows
    ## # ℹ 4 more variables: homeworld <chr>, species <chr>, films <list>,
    ## #   vehicles <list>
…
Manchmal ist es nützlich, die Werte in einzelnen Spalten umzukodieren.
Eine häufige Anwendung ist es, Werte zu NA umzuwandeln. Im
Beispieldatensatz sind fehlende Werte schon korrekt kodiert. Zur
Illustration wandeln wir im Folgenden dennoch alle Werte hair_color ==
“none” zu NA um. Da wir dabei die Werte in der Spalte hair_color
verändern, können wir die Funktion mutate verwenden.

``` r
dplyr::mutate(
  dat,
  hair_color = ifelse(hair_color == "none", NA, hair_color)
)
```

    ## # A tibble: 87 × 13
    ##    name     height  mass hair_color skin_color eye_color birth_year sex   gender
    ##    <chr>     <int> <dbl> <chr>      <chr>      <chr>          <dbl> <chr> <chr> 
    ##  1 Luke Sk…    172    77 blond      fair       blue            19   male  mascu…
    ##  2 C-3PO       167    75 <NA>       gold       yellow         112   none  mascu…
    ##  3 R2-D2        96    32 <NA>       white, bl… red             33   none  mascu…
    ##  4 Darth V…    202   136 <NA>       white      yellow          41.9 male  mascu…
    ##  5 Leia Or…    150    49 brown      light      brown           19   fema… femin…
    ##  6 Owen La…    178   120 brown, gr… light      blue            52   male  mascu…
    ##  7 Beru Wh…    165    75 brown      light      blue            47   fema… femin…
    ##  8 R5-D4        97    32 <NA>       white, red red             NA   none  mascu…
    ##  9 Biggs D…    183    84 black      light      brown           24   male  mascu…
    ## 10 Obi-Wan…    182    77 auburn, w… fair       blue-gray       57   male  mascu…
    ## # ℹ 77 more rows
    ## # ℹ 4 more variables: homeworld <chr>, species <chr>, films <list>,
    ## #   vehicles <list>
…
    ## [1] "masculine" "feminine"  NA

``` r
# Simultaneously recode multiple values in gender variable
dplyr::mutate(
  dat,
  gender = dplyr::case_when(
    gender == "masculine" ~ "man",
    gender == "feminine" ~ "woman",
    TRUE ~ "diverse" # This is the same as "else -> do this"
  )
)
```

    ## # A tibble: 87 × 13
    ##    name     height  mass hair_color skin_color eye_color birth_year sex   gender
    ##    <chr>     <int> <dbl> <chr>      <chr>      <chr>          <dbl> <chr> <chr> 
    ##  1 Luke Sk…    172    77 blond      fair       blue            19   male  man   
    ##  2 C-3PO       167    75 <NA>       gold       yellow         112   none  man   
    ##  3 R2-D2        96    32 <NA>       white, bl… red             33   none  man   
    ##  4 Darth V…    202   136 none       white      yellow          41.9 male  man   
    ##  5 Leia Or…    150    49 brown      light      brown           19   fema… woman 
    ##  6 Owen La…    178   120 brown, gr… light      blue            52   male  man   
    ##  7 Beru Wh…    165    75 brown      light      blue            47   fema… woman 
    ##  8 R5-D4        97    32 <NA>       white, red red             NA   none  man   
    ##  9 Biggs D…    183    84 black      light      brown           24   male  man   
    ## 10 Obi-Wan…    182    77 auburn, w… fair       blue-gray       57   male  man   
    ## # ℹ 77 more rows
    ## # ℹ 4 more variables: homeworld <chr>, species <chr>, films <list>,
    ## #   vehicles <list>
…
